{
  "images" : [
    {
      "idiom" : "iphone",
      "filename" : "iOS-Phone-Phonex1-Edition-Dual-4.png",
      "scale" : "1x"
    },
    {
      "idiom" : "iphone",
      "filename" : "iOS-Phone-Phonex2-Edition-Dual-4.png",
      "scale" : "2x"
    },
    {
      "idiom" : "iphone",
      "filename" : "iOS-Phone-Phonex3-Edition-Dual-4.png",
      "scale" : "3x"
    },
    {
      "idiom" : "ipad",
      "filename" : "iOS-iPad-540x643-Edition-Dual-4.png",
      "scale" : "1x"
    },
    {
      "idiom" : "ipad",
      "filename" : "iOS-iPad-1080x1240-Edition-Dual-4.png",
      "scale" : "2x"
    }
  ],
  "info" : {
    "version" : 1,
    "author" : "xcode"
  }
}